(footprint "MutualCap_Sensor_Interleaved_8mm"
	(version 20240108)
	(generator "pcbnew")
	(generator_version "8.0")
	(layer "F.Cu")
	(property "Reference" "REF**"
		(at 0 -0.5 0)
		(unlocked yes)
		(layer "F.Fab")
		(uuid "8e3ba6d7-5a5a-4f8e-8f1d-c368cd3ff0b8")
		(effects
			(font
				(size 1 1)
				(thickness 0.1)
			)
		)
	)
	(property "Value" "MutualCap_Sensor_Interleaved_8mm"
		(at 0 0 180)
		(unlocked yes)
		(layer "F.SilkS")
		(uuid "c7ff0c6c-5d86-47dd-a4a6-62feb7522e0a")
		(effects
			(font
				(face "DejaVu Sans")
				(size 2.5 2.5)
				(thickness 0.15)
			)
		)
		(render_cache "MutualCap_Sensor_Interleaved_8mm" 180
			(polygon
				(pts
					(xy 32.129534 1.541704) (xy 31.61235 1.541704) (xy 30.95839 -0.20341) (xy 30.300156 1.541704) (xy 29.783582 1.541704)
					(xy 29.783582 -1.0375) (xy 30.121858 -1.0375) (xy 30.121858 1.229073) (xy 30.783146 -0.529474)
					(xy 31.131802 -0.529474) (xy 31.792479 1.229073) (xy 31.792479 -1.0375) (xy 32.129534 -1.0375)
				)
			)
			(polygon
				(pts
					(xy 29.157099 -0.268745) (xy 29.157099 0.877363) (xy 28.840805 0.877363) (xy 28.840805 -0.256533)
					(xy 28.834164 -0.384493) (xy 28.810819 -0.508104) (xy 28.75946 -0.629929) (xy 28.734559 -0.66625)
					(xy 28.639562 -0.749598) (xy 28.514855 -0.794478) (xy 28.415211 -0.803026) (xy 28.2798 -0.79013)
					(xy 28.16139 -0.751442) (xy 28.049763 -0.678205) (xy 28.010989 -0.639994) (xy 27.938969 -0.538967)
					(xy 27.890519 -0.419296) (xy 27.867239 -0.29727) (xy 27.862001 -0.196083) (xy 27.862001 0.877363)
					(xy 27.545707 0.877363) (xy 27.545707 -1.0375) (xy 27.862001 -1.0375) (xy 27.862001 -0.724869)
					(xy 27.937385 -0.82736) (xy 28.02871 -0.919439) (xy 28.128837 -0.989872) (xy 28.249737 -1.042709)
					(xy 28.372631 -1.06972) (xy 28.481768 -1.076578) (xy 28.619199 -1.066732) (xy 28.741378 -1.037192)
					(xy 28.862336 -0.979318) (xy 28.963372 -0.895722) (xy 28.985518 -0.870804) (xy 29.060585 -0.75601)
					(xy 29.108674 -0.63603) (xy 29.140343 -0.497818) (xy 29.154418 -0.364839)
				)
			)
			(polygon
				(pts
					(xy 26.59377 1.424467) (xy 26.59377 0.877363) (xy 25.942863 0.877363) (xy 25.942863 0.64289) (xy 26.59377 0.64289)
					(xy 26.59377 -0.396362) (xy 26.587509 -0.52651) (xy 26.560649 -0.646671) (xy 26.529657 -0.697391)
					(xy 26.414917 -0.751208) (xy 26.291842 -0.763688) (xy 26.267706 -0.763948) (xy 25.942863 -0.763948)
					(xy 25.942863 -1.0375) (xy 26.267706 -1.0375) (xy 26.3969 -1.032648) (xy 26.527494 -1.014725) (xy 26.650197 -0.978069)
					(xy 26.763756 -0.907992) (xy 26.772678 -0.899502) (xy 26.846094 -0.791072) (xy 26.885249 -0.672385)
					(xy 26.905235 -0.545243) (xy 26.911761 -0.418962) (xy 26.911897 -0.396362) (xy 26.911897 0.64289)
					(xy 27.143317 0.64289) (xy 27.143317 0.877363) (xy 26.911897 0.877363) (xy 26.911897 1.424467)
				)
			)
			(polygon
				(pts
					(xy 25.569172 -0.268745) (xy 25.569172 0.877363) (xy 25.252877 0.877363) (xy 25.252877 -0.256533)
					(xy 25.246237 -0.384493) (xy 25.222892 -0.508104) (xy 25.171533 -0.629929) (xy 25.146631 -0.66625)
					(xy 25.051634 -0.749598) (xy 24.926927 -0.794478) (xy 24.827284 -0.803026) (xy 24.691872 -0.79013)
					(xy 24.573462 -0.751442) (xy 24.461836 -0.678205) (xy 24.423062 -0.639994) (xy 24.351041 -0.538967)
					(xy 24.302591 -0.419296) (xy 24.279312 -0.29727) (xy 24.274074 -0.196083) (xy 24.274074 0.877363)
					(xy 23.957779 0.877363) (xy 23.957779 -1.0375) (xy 24.274074 -1.0375) (xy 24.274074 -0.724869)
					(xy 24.349458 -0.82736) (xy 24.440782 -0.919439) (xy 24.540909 -0.989872) (xy 24.661809 -1.042709)
					(xy 24.784704 -1.06972) (xy 24.89384 -1.076578) (xy 25.031271 -1.066732) (xy 25.153451 -1.037192)
					(xy 25.274408 -0.979318) (xy 25.375445 -0.895722) (xy 25.397591 -0.870804) (xy 25.472658 -0.75601)
					(xy 25.520747 -0.63603) (xy 25.552416 -0.497818) (xy 25.566491 -0.364839)
				)
			)
			(polygon
				(pts
					(xy 22.918084 -1.068748) (xy 23.045071 -1.040622) (xy 23.169867 -0.984529) (xy 23.26474 -0.912936)
					(xy 23.348863 -0.811753) (xy 23.405454 -0.692988) (xy 23.432645 -0.572661) (xy 23.438763 -0.473299)
					(xy 23.428391 -0.34035) (xy 23.391134 -0.206942) (xy 23.326782 -0.093302) (xy 23.235334 0.000568)
					(xy 23.221998 0.010912) (xy 23.116669 0.074437) (xy 22.990888 0.12236) (xy 22.866796 0.151018)
					(xy 22.727678 0.168212) (xy 22.600267 0.173785) (xy 22.573533 0.173944) (xy 22.130232 0.173944)
					(xy 22.130232 0.203253) (xy 22.144245 0.325231) (xy 22.192029 0.437919) (xy 22.273725 0.528096)
					(xy 22.386013 0.593453) (xy 22.51176 0.629326) (xy 22.644204 0.642442) (xy 22.676115 0.64289) (xy 22.798561 0.637395)
					(xy 22.928497 0.619038) (xy 22.997294 0.603811) (xy 23.122285 0.56561) (xy 23.243245 0.51451) (xy 23.297713 0.486575)
					(xy 23.297713 0.760127) (xy 23.179719 0.809243) (xy 23.064177 0.849123) (xy 22.961269 0.877363)
					(xy 22.840111 0.901177) (xy 22.711376 0.914572) (xy 22.643142 0.916442) (xy 22.517974 0.911269)
					(xy 22.381389 0.891406) (xy 22.259658 0.856644) (xy 22.136415 0.797259) (xy 22.03339 0.717597)
					(xy 22.020323 0.704562) (xy 21.939905 0.601671) (xy 21.879239 0.477859) (xy 21.842961 0.355084)
					(xy 21.821194 0.216939) (xy 21.814139 0.090077) (xy 21.813938 0.063424) (xy 21.813938 -0.130137)
					(xy 22.130232 -0.130137) (xy 22.130232 -0.060528) (xy 22.444695 -0.060528) (xy 22.579999 -0.063576)
					(xy 22.716963 -0.074838) (xy 22.845944 -0.097869) (xy 22.965848 -0.1419) (xy 22.975313 -0.147234)
					(xy 23.070986 -0.237443) (xy 23.116009 -0.356668) (xy 23.123079 -0.442158) (xy 23.104839 -0.565815)
					(xy 23.044399 -0.67374) (xy 23.01256 -0.70594) (xy 22.900127 -0.772308) (xy 22.77957 -0.799613)
					(xy 22.71092 -0.803026) (xy 22.58586 -0.791539) (xy 22.460768 -0.751155) (xy 22.352195 -0.681694)
					(xy 22.28899 -0.619234) (xy 22.212247 -0.506239) (xy 22.165116 -0.38966) (xy 22.137829 -0.257893)
					(xy 22.130232 -0.130137) (xy 21.813938 -0.130137) (xy 21.813938 -1.0375) (xy 22.130232 -1.0375)
					(xy 22.130232 -0.724869) (xy 22.203028 -0.828266) (xy 22.295225 -0.920791) (xy 22.400121 -0.991093)
					(xy 22.51946 -1.039763) (xy 22.642726 -1.066477) (xy 22.765698 -1.076244) (xy 22.794573 -1.076578)
				)
			)
			(polygon
				(pts
					(xy 21.174022 1.619862) (xy 20.858338 1.619862) (xy 20.858338 -1.0375) (xy 21.174022 -1.0375)
				)
			)
			(polygon
				(pts
					(xy 18.268142 1.34631) (xy 18.268142 0.9946) (xy 18.368553 1.076592) (xy 18.472634 1.146026) (xy 18.592585 1.208446)
					(xy 18.641834 1.229073) (xy 18.767986 1.270289) (xy 18.899148 1.29624) (xy 19.021475 1.306544)
					(xy 19.063153 1.307231) (xy 19.195516 1.300597) (xy 19.317831 1.280696) (xy 19.451346 1.239301)
					(xy 19.570393 1.178801) (xy 19.674972 1.099195) (xy 19.736652 1.035511) (xy 19.815922 0.925344)
					(xy 19.87879 0.798175) (xy 19.918653 0.679214) (xy 19.947126 0.548447) (xy 19.96421 0.405872) (xy 19.969677 0.283312)
					(xy 19.969904 0.251491) (xy 19.96626 0.127318) (xy 19.951454 -0.017351) (xy 19.925258 -0.150304)
					(xy 19.887674 -0.27154) (xy 19.827539 -0.401556) (xy 19.751003 -0.5147) (xy 19.736652 -0.531917)
					(xy 19.64172 -0.624052) (xy 19.532318 -0.697124) (xy 19.408449 -0.751134) (xy 19.27011 -0.786082)
					(xy 19.143776 -0.800644) (xy 19.063153 -0.803026) (xy 18.939473 -0.796892) (xy 18.806809 -0.775688)
					(xy 18.679154 -0.739338) (xy 18.641834 -0.725479) (xy 18.52007 -0.668938) (xy 18.414358 -0.604898)
					(xy 18.312316 -0.528396) (xy 18.268142 -0.490396) (xy 18.268142 -0.842105) (xy 18.384015 -0.909654)
					(xy 18.50418 -0.965753) (xy 18.628639 -1.010404) (xy 18.654046 -1.01796) (xy 18.783395 -1.048872)
					(xy 18.917275 -1.068335) (xy 19.041642 -1.076063) (xy 19.083913 -1.076578) (xy 19.225679 -1.071016)
					(xy 19.359717 -1.054329) (xy 19.486027 -1.026518) (xy 19.604609 -0.987582) (xy 19.741968 -0.923269)
					(xy 19.867253 -0.841573) (xy 19.980463 -0.742496) (xy 20.001656 -0.720594) (xy 20.098053 -0.602999)
					(xy 20.163407 -0.499778) (xy 20.218305 -0.388428) (xy 20.262745 -0.268949) (xy 20.296729 -0.141342)
					(xy 20.320257 -0.005606) (xy 20.333328 0.138258) (xy 20.336269 0.251491) (xy 20.33104 0.401739)
					(xy 20.315355 0.543819) (xy 20.289214 0.677733) (xy 20.252615 0.80348) (xy 20.205561 0.92106) (xy 20.148049 1.030473)
					(xy 20.061455 1.155755) (xy 20.001656 1.224799) (xy 19.890861 1.327353) (xy 19.767991 1.412525)
					(xy 19.633047 1.480315) (xy 19.516397 1.522032) (xy 19.392019 1.552624) (xy 19.259913 1.572092)
					(xy 19.120079 1.580435) (xy 19.083913 1.580783) (xy 18.956552 1.576146) (xy 18.83344 1.562236)
					(xy 18.701635 1.535903) (xy 18.650382 1.522165) (xy 18.525685 1.479804) (xy 18.405758 1.425994)
					(xy 18.290601 1.360735)
				)
			)
			(polygon
				(pts
					(xy 17.359116 -1.068748) (xy 17.486104 -1.040622) (xy 17.6109 -0.984529) (xy 17.705773 -0.912936)
					(xy 17.789896 -0.811753) (xy 17.846487 -0.692988) (xy 17.873678 -0.572661) (xy 17.879796 -0.473299)
					(xy 17.869424 -0.34035) (xy 17.832167 -0.206942) (xy 17.767815 -0.093302) (xy 17.676367 0.000568)
					(xy 17.663031 0.010912) (xy 17.557702 0.074437) (xy 17.431921 0.12236) (xy 17.307829 0.151018)
					(xy 17.168711 0.168212) (xy 17.0413 0.173785) (xy 17.014566 0.173944) (xy 16.571265 0.173944) (xy 16.571265 0.203253)
					(xy 16.585278 0.325231) (xy 16.633062 0.437919) (xy 16.714758 0.528096) (xy 16.827046 0.593453)
					(xy 16.952793 0.629326) (xy 17.085236 0.642442) (xy 17.117148 0.64289) (xy 17.239594 0.637395)
					(xy 17.36953 0.619038) (xy 17.438327 0.603811) (xy 17.563318 0.56561) (xy 17.684278 0.51451) (xy 17.738746 0.486575)
					(xy 17.738746 0.760127) (xy 17.620751 0.809243) (xy 17.50521 0.849123) (xy 17.402301 0.877363)
					(xy 17.281144 0.901177) (xy 17.152409 0.914572) (xy 17.084175 0.916442) (xy 16.959007 0.911269)
					(xy 16.822421 0.891406) (xy 16.700691 0.856644) (xy 16.577448 0.797259) (xy 16.474423 0.717597)
					(xy 16.461356 0.704562) (xy 16.380938 0.601671) (xy 16.320272 0.477859) (xy 16.283994 0.355084)
					(xy 16.262226 0.216939) (xy 16.255172 0.090077) (xy 16.254971 0.063424) (xy 16.254971 -0.130137)
					(xy 16.571265 -0.130137) (xy 16.571265 -0.060528) (xy 16.885728 -0.060528) (xy 17.021032 -0.063576)
					(xy 17.157996 -0.074838) (xy 17.286977 -0.097869) (xy 17.40688 -0.1419) (xy 17.416345 -0.147234)
					(xy 17.512019 -0.237443) (xy 17.557041 -0.356668) (xy 17.564112 -0.442158) (xy 17.545872 -0.565815)
					(xy 17.485432 -0.67374) (xy 17.453592 -0.70594) (xy 17.34116 -0.772308) (xy 17.220603 -0.799613)
					(xy 17.151952 -0.803026) (xy 17.026893 -0.791539) (xy 16.901801 -0.751155) (xy 16.793228 -0.681694)
					(xy 16.730023 -0.619234) (xy 16.65328 -0.506239) (xy 16.606148 -0.38966) (xy 16.578862 -0.257893)
					(xy 16.571265 -0.130137) (xy 16.254971 -0.130137) (xy 16.254971 -1.0375) (xy 16.571265 -1.0375)
					(xy 16.571265 -0.724869) (xy 16.644061 -0.828266) (xy 16.736258 -0.920791) (xy 16.841153 -0.991093)
					(xy 16.960493 -1.039763) (xy 17.083759 -1.066477) (xy 17.206731 -1.076244) (xy 17.235606 -1.076578)
				)
			)
			(polygon
				(pts
					(xy 15.627267 0.877363) (xy 15.309751 0.877363) (xy 15.309751 0.564733) (xy 15.242417 0.667224)
					(xy 15.156504 0.759303) (xy 15.058181 0.829736) (xy 14.935821 0.882573) (xy 14.809024 0.909584)
					(xy 14.694869 0.916442) (xy 14.568073 0.906782) (xy 14.431865 0.871094) (xy 14.308279 0.809109)
					(xy 14.197315 0.720827) (xy 14.125784 0.641669) (xy 14.051287 0.532762) (xy 13.992204 0.411661)
					(xy 13.948533 0.278367) (xy 13.923915 0.157975) (xy 13.910001 0.029116) (xy 13.906576 -0.080068)
					(xy 14.234472 -0.080068) (xy 14.241338 0.060944) (xy 14.261937 0.18799) (xy 14.302294 0.316084)
					(xy 14.360588 0.425936) (xy 14.377964 0.450549) (xy 14.46718 0.543527) (xy 14.573397 0.606075)
					(xy 14.696615 0.638194) (xy 14.772417 0.64289) (xy 14.904785 0.627676) (xy 15.020249 0.582032)
					(xy 15.118808 0.50596) (xy 15.166258 0.450549) (xy 15.229036 0.345257) (xy 15.273878 0.221724)
					(xy 15.2984 0.098668) (xy 15.30919 -0.038353) (xy 15.309751 -0.080068) (xy 15.302884 -0.22108)
					(xy 15.282285 -0.348126) (xy 15.241928 -0.47622) (xy 15.183634 -0.586072) (xy 15.166258 -0.610685)
					(xy 15.077091 -0.703663) (xy 14.971019 -0.766211) (xy 14.848042 -0.798331) (xy 14.772417 -0.803026)
					(xy 14.639753 -0.787812) (xy 14.52409 -0.742168) (xy 14.42543 -0.666096) (xy 14.377964 -0.610685)
					(xy 14.315186 -0.505394) (xy 14.270345 -0.38186) (xy 14.245822 -0.258804) (xy 14.235032 -0.121782)
					(xy 14.234472 -0.080068) (xy 13.906576 -0.080068) (xy 13.911927 -0.215716) (xy 13.927983 -0.342927)
					(xy 13.961378 -0.484442) (xy 14.010186 -0.613807) (xy 14.074407 -0.731022) (xy 14.125784 -0.802416)
					(xy 14.212394 -0.895588) (xy 14.325161 -0.979925) (xy 14.45055 -1.038024) (xy 14.588562 -1.069885)
					(xy 14.694869 -1.076578) (xy 14.821129 -1.068111) (xy 14.946654 -1.039237) (xy 15.058181 -0.989872)
					(xy 15.164827 -0.911962) (xy 15.249612 -0.817916) (xy 15.309751 -0.724869) (xy 15.309751 -1.779998)
					(xy 15.627267 -1.779998)
				)
			)
			(polygon
				(pts
					(xy 11.933704 -1.623682) (xy 11.933704 -1.858155) (xy 13.760641 -1.858155) (xy 13.760641 -1.623682)
				)
			)
			(polygon
				(pts
					(xy 10.095166 1.463546) (xy 10.095166 1.111837) (xy 10.216286 1.168389) (xy 10.333112 1.215163)
					(xy 10.456662 1.255318) (xy 10.467636 1.258382) (xy 10.586674 1.286194) (xy 10.713241 1.303367)
					(xy 10.805913 1.307231) (xy 10.93975 1.300247) (xy 11.070885 1.275695) (xy 11.192457 1.227681)
					(xy 11.243718 1.19549) (xy 11.330976 1.107904) (xy 11.384857 0.986846) (xy 11.39698 0.878585) (xy 11.380151 0.752485)
					(xy 11.318909 0.641297) (xy 11.295009 0.617855) (xy 11.181925 0.552058) (xy 11.053793 0.509124)
					(xy 10.925527 0.479586) (xy 10.907884 0.476195) (xy 10.698446 0.432841) (xy 10.559986 0.401414)
					(xy 10.435866 0.362087) (xy 10.309183 0.306222) (xy 10.202017 0.239603) (xy 10.125696 0.173944)
					(xy 10.044753 0.073308) (xy 9.986936 -0.042973) (xy 9.952246 -0.174902) (xy 9.940863 -0.303176)
					(xy 9.940682 -0.322479) (xy 9.949462 -0.455386) (xy 9.975802 -0.575671) (xy 10.028725 -0.70005)
					(xy 10.105549 -0.807248) (xy 10.190421 -0.885458) (xy 10.310843 -0.959928) (xy 10.431829 -1.009201)
					(xy 10.569215 -1.045036) (xy 10.696232 -1.064633) (xy 10.834639 -1.074899) (xy 10.923149 -1.076578)
					(xy 11.050989 -1.071961) (xy 11.184313 -1.058107) (xy 11.310274 -1.0375) (xy 11.439933 -1.008997)
					(xy 11.559073 -0.977022) (xy 11.680531 -0.939058) (xy 11.735257 -0.920263) (xy 11.735257 -0.568553)
					(xy 11.617142 -0.629615) (xy 11.500476 -0.681597) (xy 11.385259 -0.724498) (xy 11.321876 -0.744408)
					(xy 11.195831 -0.77532) (xy 11.071097 -0.794783) (xy 10.947676 -0.802797) (xy 10.923149 -0.803026)
					(xy 10.799805 -0.797446) (xy 10.674726 -0.777401) (xy 10.554266 -0.737424) (xy 10.465194 -0.6864)
					(xy 10.373069 -0.594459) (xy 10.319185 -0.478997) (xy 10.303383 -0.35362) (xy 10.319698 -0.223703)
					(xy 10.374193 -0.109123) (xy 10.419398 -0.058696) (xy 10.527276 0.013889) (xy 10.649051 0.062833)
					(xy 10.767337 0.094432) (xy 10.799807 0.101282) (xy 11.011077 0.142803) (xy 11.148943 0.174974)
					(xy 11.271739 0.213328) (xy 11.395955 0.265888) (xy 11.512801 0.336261) (xy 11.572225 0.385825)
					(xy 11.656052 0.489144) (xy 11.712445 0.612942) (xy 11.739541 0.740177) (xy 11.745637 0.846222)
					(xy 11.737222 0.969133) (xy 11.706134 1.099669) (xy 11.652138 1.216355) (xy 11.575235 1.319192)
					(xy 11.506279 1.384167) (xy 11.392644 1.460778) (xy 11.281475 1.511468) (xy 11.157599 1.548334)
					(xy 11.021013 1.571374) (xy 10.897485 1.580015) (xy 10.845602 1.580783) (xy 10.72097 1.57732) (xy 10.59475 1.56693)
					(xy 10.478627 1.551474) (xy 10.348741 1.52786) (xy 10.228909 1.500383) (xy 10.107408 1.467181)
				)
			)
			(polygon
				(pts
					(xy 8.704789 -1.070123) (xy 8.83462 -1.050759) (xy 8.95509 -1.018484) (xy 9.087296 -0.962714) (xy 9.206021 -0.888353)
					(xy 9.29466 -0.812185) (xy 9.385965 -0.706491) (xy 9.458379 -0.587701) (xy 9.511903 -0.455818)
					(xy 9.542075 -0.335911) (xy 9.559129 -0.206912) (xy 9.563327 -0.097165) (xy 9.557111 0.043906)
					(xy 9.538462 0.175556) (xy 9.50738 0.297785) (xy 9.45367 0.432023) (xy 9.382057 0.552695) (xy 9.308704 0.64289)
					(xy 9.206745 0.735855) (xy 9.092292 0.809586) (xy 8.965345 0.864083) (xy 8.825905 0.899345) (xy 8.700161 0.914038)
					(xy 8.62055 0.916442) (xy 8.480838 0.907469) (xy 8.352503 0.88055) (xy 8.235545 0.835685) (xy 8.129965 0.772873)
					(xy 8.035762 0.692116) (xy 8.00689 0.661209) (xy 7.930111 0.559285) (xy 7.869217 0.444481) (xy 7.824208 0.316797)
					(xy 7.795085 0.176234) (xy 7.783663 0.056707) (xy 8.096649 0.056707) (xy 8.107106 0.183676) (xy 8.139488 0.310366)
					(xy 8.193702 0.419959) (xy 8.241973 0.483522) (xy 8.339456 0.567564) (xy 8.454827 0.620479) (xy 8.588087 0.642268)
					(xy 8.616886 0.64289) (xy 8.742519 0.633235) (xy 8.868163 0.599291) (xy 8.977192 0.540907) (xy 9.040648 0.488407)
					(xy 9.119275 0.391903) (xy 9.176553 0.2755) (xy 9.209545 0.155325) (xy 9.223219 0.054876) (xy 8.096649 0.056707)
					(xy 7.783663 0.056707) (xy 7.782951 0.049259) (xy 7.780965 -0.031219) (xy 7.780965 -0.177765) (xy 9.233599 -0.177765)
					(xy 9.217095 -0.304381) (xy 9.180058 -0.432055) (xy 9.123634 -0.541564) (xy 9.036984 -0.643047)
					(xy 8.927101 -0.720381) (xy 8.811019 -0.767875) (xy 8.677611 -0.795371) (xy 8.546666 -0.803026)
					(xy 8.422939 -0.797254) (xy 8.301954 -0.779938) (xy 8.194346 -0.754178) (xy 8.077093 -0.714822)
					(xy 7.960417 -0.663922) (xy 7.854849 -0.607632) (xy 7.854849 -0.920263) (xy 7.972633 -0.96848)
					(xy 8.092582 -1.008183) (xy 8.203505 -1.036889) (xy 8.326734 -1.059486) (xy 8.451261 -1.072702)
					(xy 8.565595 -1.076578)
				)
			)
			(polygon
				(pts
					(xy 5.675592 0.107388) (xy 5.675592 -1.0375) (xy 5.991276 -1.0375) (xy 5.991276 0.097008) (xy 5.997954 0.225197)
					(xy 6.021433 0.348882) (xy 6.073087 0.470537) (xy 6.098132 0.506725) (xy 6.192843 0.589701) (xy 6.317607 0.63438)
					(xy 6.417479 0.64289) (xy 6.552843 0.629946) (xy 6.671108 0.591113) (xy 6.78246 0.517601) (xy 6.821091 0.479248)
					(xy 6.892521 0.378172) (xy 6.940574 0.258356) (xy 6.963663 0.13612) (xy 6.968858 0.034726) (xy 6.968858 -1.0375)
					(xy 7.286373 -1.0375) (xy 7.286373 0.877363) (xy 6.968858 0.877363) (xy 6.968858 0.564733) (xy 6.893999 0.666318)
					(xy 6.8027 0.75795) (xy 6.702022 0.828515) (xy 6.580006 0.882096) (xy 6.456541 0.909487) (xy 6.34726 0.916442)
					(xy 6.209945 0.906625) (xy 6.088116 0.877173) (xy 5.967846 0.81947) (xy 5.867802 0.736122) (xy 5.845951 0.711278)
					(xy 5.771419 0.596599) (xy 5.723672 0.476406) (xy 5.692228 0.337689) (xy 5.678254 0.204045)
				)
			)
			(polygon
				(pts
					(xy 3.830337 0.799206) (xy 3.830337 0.486575) (xy 3.940801 0.543628) (xy 4.054893 0.587783) (xy 4.108774 0.603811)
					(xy 4.236851 0.630525) (xy 4.359338 0.641936) (xy 4.407361 0.64289) (xy 4.530617 0.637287) (xy 4.655945 0.615222)
					(xy 4.760902 0.57206) (xy 4.84883 0.483522) (xy 4.878139 0.359569) (xy 4.841849 0.237702) (xy 4.793875 0.18982)
					(xy 4.677579 0.133345) (xy 4.558606 0.097185) (xy 4.455599 0.072583) (xy 4.347521 0.049991) (xy 4.227995 0.02139)
					(xy 4.105912 -0.017131) (xy 3.989286 -0.067955) (xy 3.87785 -0.141681) (xy 3.868805 -0.149677)
					(xy 3.788153 -0.249883) (xy 3.740978 -0.374187) (xy 3.727144 -0.508103) (xy 3.740425 -0.632552)
					(xy 3.787115 -0.756227) (xy 3.867422 -0.862611) (xy 3.939636 -0.923927) (xy 4.055498 -0.990712)
					(xy 4.173157 -1.033496) (xy 4.306009 -1.061671) (xy 4.431976 -1.074193) (xy 4.522155 -1.076578)
					(xy 4.650184 -1.070129) (xy 4.771943 -1.052727) (xy 4.844555 -1.0375) (xy 4.972611 -1.002695) (xy 5.094522 -0.961135)
					(xy 5.197486 -0.920263) (xy 5.197486 -0.607632) (xy 5.088495 -0.663922) (xy 4.969845 -0.714822)
					(xy 4.852493 -0.754178) (xy 4.725239 -0.783945) (xy 4.599015 -0.799973) (xy 4.515438 -0.803026)
					(xy 4.386161 -0.795752) (xy 4.257476 -0.767816) (xy 4.172277 -0.728532) (xy 4.08206 -0.638773)
					(xy 4.051987 -0.518483) (xy 4.079422 -0.395522) (xy 4.138694 -0.325532) (xy 4.254182 -0.267813)
					(xy 4.385188 -0.227873) (xy 4.519102 -0.196693) (xy 4.629011 -0.17288) (xy 4.749704 -0.143069)
					(xy 4.868534 -0.101414) (xy 4.977859 -0.044881) (xy 5.053383 0.013965) (xy 5.12743 0.111481) (xy 5.170741 0.231076)
					(xy 5.183442 0.358958) (xy 5.171421 0.484781) (xy 5.129159 0.608177) (xy 5.056467 0.712349) (xy 4.991101 0.771118)
					(xy 4.884855 0.834697) (xy 4.75846 0.880111) (xy 4.631334 0.904947) (xy 4.488781 0.915875) (xy 4.445218 0.916442)
					(xy 4.316705 0.912321) (xy 4.19403 0.899956) (xy 4.115491 0.887133) (xy 3.993903 0.858482) (xy 3.871753 0.816808)
				)
			)
			(polygon
				(pts
					(xy 2.614257 -1.070109) (xy 2.752503 -1.045264) (xy 2.878169 -1.001787) (xy 2.991255 -0.939677)
					(xy 3.091762 -0.858934) (xy 3.137298 -0.811575) (xy 3.216982 -0.704929) (xy 3.28018 -0.5842) (xy 3.326891 -0.449389)
					(xy 3.353224 -0.32629) (xy 3.368107 -0.193411) (xy 3.371771 -0.080068) (xy 3.366047 0.061131) (xy 3.348873 0.192403)
					(xy 3.320251 0.313746) (xy 3.270792 0.446253) (xy 3.204846 0.564462) (xy 3.137298 0.652049) (xy 3.043081 0.741902)
					(xy 2.936284 0.813164) (xy 2.816908 0.865836) (xy 2.684953 0.899918) (xy 2.540418 0.915409) (xy 2.489444 0.916442)
					(xy 2.364967 0.909987) (xy 2.227008 0.885201) (xy 2.1015 0.841824) (xy 1.988442 0.779857) (xy 1.887835 0.699299)
					(xy 1.8422 0.652049) (xy 1.762101 0.545754) (xy 1.698574 0.425161) (xy 1.651619 0.290272) (xy 1.62515 0.166943)
					(xy 1.610189 0.033686) (xy 1.606506 -0.080068) (xy 1.941119 -0.080068) (xy 1.948189 0.05892) (xy 1.969402 0.184701)
					(xy 2.010962 0.31228) (xy 2.070992 0.422609) (xy 2.088885 0.447496) (xy 2.180312 0.541949) (xy 2.288354 0.605491)
					(xy 2.413011 0.63812) (xy 2.489444 0.64289) (xy 2.623922 0.627579) (xy 2.741591 0.581646) (xy 2.842452 0.50509)
					(xy 2.891223 0.449328) (xy 2.955871 0.343884) (xy 3.002048 0.220503) (xy 3.027302 0.097831) (xy 3.038413 -0.038572)
					(xy 3.03899 -0.080068) (xy 3.031978 -0.220425) (xy 3.01094 -0.347108) (xy 2.969724 -0.475145) (xy 2.91019 -0.585321)
					(xy 2.892444 -0.610075) (xy 2.801072 -0.703347) (xy 2.692504 -0.766094) (xy 2.566742 -0.798316)
					(xy 2.489444 -0.803026) (xy 2.355556 -0.787667) (xy 2.238284 -0.741589) (xy 2.137627 -0.664792)
					(xy 2.088885 -0.608853) (xy 2.024237 -0.502989) (xy 1.97806 -0.37957) (xy 1.952807 -0.257178) (xy 1.941696 -0.121346)
					(xy 1.941119 -0.080068) (xy 1.606506 -0.080068) (xy 1.61226 -0.22077) (xy 1.629523 -0.351692) (xy 1.658294 -0.472836)
					(xy 1.708011 -0.605299) (xy 1.7743 -0.723681) (xy 1.8422 -0.811575) (xy 1.936582 -0.901635) (xy 2.043414 -0.973061)
					(xy 2.162697 -1.025855) (xy 2.294431 -1.060016) (xy 2.438615 -1.075543) (xy 2.489444 -1.076578)
				)
			)
			(polygon
				(pts
					(xy -0.01954 0.603811) (xy 0.096474 0.633121) (xy 0.220497 0.642804) (xy 0.234472 0.64289) (xy 0.360715 0.631899)
					(xy 0.484127 0.593259) (xy 0.587832 0.526799) (xy 0.646021 0.467035) (xy 0.715385 0.355994) (xy 0.757984 0.236935)
					(xy 0.782647 0.098718) (xy 0.789514 -0.037936) (xy 0.789514 -1.0375) (xy 1.107029 -1.0375) (xy 1.107029 0.877363)
					(xy 0.789514 0.877363) (xy 0.789514 0.564733) (xy 0.721464 0.667224) (xy 0.633111 0.759303) (xy 0.530616 0.829736)
					(xy 0.412477 0.879101) (xy 0.290928 0.906197) (xy 0.155903 0.916358) (xy 0.141659 0.916442) (xy 0.070218 0.916442)
					(xy -0.017708 0.916442)
				)
			)
			(polygon
				(pts
					(xy -1.804955 -1.623682) (xy -1.804955 -1.858155) (xy 0.02198 -1.858155) (xy 0.02198 -1.623682)
				)
			)
			(polygon
				(pts
					(xy -2.105984 1.541704) (xy -2.452809 1.541704) (xy -2.452809 -1.0375) (xy -2.105984 -1.0375)
				)
			)
			(polygon
				(pts
					(xy -4.721825 0.107388) (xy -4.721825 -1.0375) (xy -4.406141 -1.0375) (xy -4.406141 0.097008) (xy -4.399463 0.225197)
					(xy -4.375984 0.348882) (xy -4.32433 0.470537) (xy -4.299285 0.506725) (xy -4.204574 0.589701)
					(xy -4.07981 0.63438) (xy -3.979938 0.64289) (xy -3.844574 0.629946) (xy -3.726309 0.591113) (xy -3.614957 0.517601)
					(xy -3.576326 0.479248) (xy -3.504896 0.378172) (xy -3.456843 0.258356) (xy -3.433754 0.13612)
					(xy -3.428559 0.034726) (xy -3.428559 -1.0375) (xy -3.111044 -1.0375) (xy -3.111044 0.877363) (xy -3.428559 0.877363)
					(xy -3.428559 0.564733) (xy -3.503418 0.666318) (xy -3.594717 0.75795) (xy -3.695395 0.828515)
					(xy -3.817411 0.882096) (xy -3.940876 0.909487) (xy -4.050157 0.916442) (xy -4.187472 0.906625)
					(xy -4.309301 0.877173) (xy -4.429571 0.81947) (xy -4.529615 0.736122) (xy -4.551466 0.711278)
					(xy -4.625998 0.596599) (xy -4.673745 0.476406) (xy -4.705189 0.337689) (xy -4.719163 0.204045)
				)
			)
			(polygon
				(pts
					(xy -5.653612 1.424467) (xy -5.653612 0.877363) (xy -6.304519 0.877363) (xy -6.304519 0.64289)
					(xy -5.653612 0.64289) (xy -5.653612 -0.396362) (xy -5.659873 -0.52651) (xy -5.686733 -0.646671)
					(xy -5.717726 -0.697391) (xy -5.832465 -0.751208) (xy -5.95554 -0.763688) (xy -5.979676 -0.763948)
					(xy -6.304519 -0.763948) (xy -6.304519 -1.0375) (xy -5.979676 -1.0375) (xy -5.850482 -1.032648)
					(xy -5.719888 -1.014725) (xy -5.597185 -0.978069) (xy -5.483626 -0.907992) (xy -5.474704 -0.899502)
					(xy -5.401288 -0.791072) (xy -5.362133 -0.672385) (xy -5.342147 -0.545243) (xy -5.335621 -0.418962)
					(xy -5.335485 -0.396362) (xy -5.335485 0.64289) (xy -5.104065 0.64289) (xy -5.104065 0.877363)
					(xy -5.335485 0.877363) (xy -5.335485 1.424467)
				)
			)
			(polygon
				(pts
					(xy -7.432335 -1.070123) (xy -7.302504 -1.050759) (xy -7.182034 -1.018484) (xy -7.049828 -0.962714)
					(xy -6.931103 -0.888353) (xy -6.842464 -0.812185) (xy -6.751159 -0.706491) (xy -6.678745 -0.587701)
					(xy -6.625221 -0.455818) (xy -6.595049 -0.335911) (xy -6.577995 -0.206912) (xy -6.573797 -0.097165)
					(xy -6.580013 0.043906) (xy -6.598662 0.175556) (xy -6.629744 0.297785) (xy -6.683454 0.432023)
					(xy -6.755067 0.552695) (xy -6.82842 0.64289) (xy -6.930379 0.735855) (xy -7.044832 0.809586) (xy -7.171779 0.864083)
					(xy -7.311219 0.899345) (xy -7.436963 0.914038) (xy -7.516574 0.916442) (xy -7.656286 0.907469)
					(xy -7.784621 0.88055) (xy -7.901579 0.835685) (xy -8.007159 0.772873) (xy -8.101362 0.692116)
					(xy -8.130234 0.661209) (xy -8.207013 0.559285) (xy -8.267907 0.444481) (xy -8.312915 0.316797)
					(xy -8.342039 0.176234) (xy -8.353461 0.056707) (xy -8.040475 0.056707) (xy -8.030018 0.183676)
					(xy -7.997636 0.310366) (xy -7.943422 0.419959) (xy -7.89515 0.483522) (xy -7.797668 0.567564)
					(xy -7.682297 0.620479) (xy -7.549036 0.642268) (xy -7.520238 0.64289) (xy -7.394605 0.633235)
					(xy -7.268961 0.599291) (xy -7.159932 0.540907) (xy -7.096476 0.488407) (xy -7.017849 0.391903)
					(xy -6.960571 0.2755) (xy -6.927579 0.155325) (xy -6.913905 0.054876) (xy -8.040475 0.056707) (xy -8.353461 0.056707)
					(xy -8.354173 0.049259) (xy -8.356159 -0.031219) (xy -8.356159 -0.177765) (xy -6.903525 -0.177765)
					(xy -6.920029 -0.304381) (xy -6.957066 -0.432055) (xy -7.01349 -0.541564) (xy -7.10014 -0.643047)
					(xy -7.210022 -0.720381) (xy -7.326105 -0.767875) (xy -7.459513 -0.795371) (xy -7.590458 -0.803026)
					(xy -7.714185 -0.797254) (xy -7.83517 -0.779938) (xy -7.942778 -0.754178) (xy -8.060031 -0.714822)
					(xy -8.176707 -0.663922) (xy -8.282275 -0.607632) (xy -8.282275 -0.920263) (xy -8.164491 -0.96848)
					(xy -8.044542 -1.008183) (xy -7.933619 -1.036889) (xy -7.81039 -1.059486) (xy -7.685863 -1.072702)
					(xy -7.571529 -1.076578)
				)
			)
			(polygon
				(pts
					(xy -9.977321 0.603811) (xy -9.861305 0.633121) (xy -9.737283 0.642804) (xy -9.723308 0.64289)
					(xy -9.597065 0.631899) (xy -9.473653 0.593259) (xy -9.369948 0.526799) (xy -9.311759 0.467035)
					(xy -9.242395 0.355994) (xy -9.199795 0.236935) (xy -9.175133 0.098718) (xy -9.168266 -0.037936)
					(xy -9.168266 -1.0375) (xy -8.850751 -1.0375) (xy -8.850751 0.877363) (xy -9.168266 0.877363) (xy -9.168266 0.564733)
					(xy -9.236316 0.667224) (xy -9.324669 0.759303) (xy -9.427164 0.829736) (xy -9.545303 0.879101)
					(xy -9.666851 0.906197) (xy -9.801877 0.916358) (xy -9.81612 0.916442) (xy -9.887562 0.916442)
					(xy -9.975489 0.916442)
				)
			)
			(polygon
				(pts
					(xy -10.301553 1.619862) (xy -10.617237 1.619862) (xy -10.617237 -1.0375) (xy -10.301553 -1.0375)
				)
			)
			(polygon
				(pts
					(xy -11.994792 -1.070123) (xy -11.86496 -1.050759) (xy -11.744491 -1.018484) (xy -11.612285 -0.962714)
					(xy -11.49356 -0.888353) (xy -11.40492 -0.812185) (xy -11.313615 -0.706491) (xy -11.241201 -0.587701)
					(xy -11.187678 -0.455818) (xy -11.157505 -0.335911) (xy -11.140451 -0.206912) (xy -11.136253 -0.097165)
					(xy -11.142469 0.043906) (xy -11.161119 0.175556) (xy -11.192201 0.297785) (xy -11.24591 0.432023)
					(xy -11.317523 0.552695) (xy -11.390876 0.64289) (xy -11.492836 0.735855) (xy -11.607289 0.809586)
					(xy -11.734235 0.864083) (xy -11.873676 0.899345) (xy -11.99942 0.914038) (xy -12.07903 0.916442)
					(xy -12.218743 0.907469) (xy -12.347077 0.88055) (xy -12.464035 0.835685) (xy -12.569615 0.772873)
					(xy -12.663818 0.692116) (xy -12.692691 0.661209) (xy -12.76947 0.559285) (xy -12.830363 0.444481)
					(xy -12.875372 0.316797) (xy -12.904495 0.176234) (xy -12.915918 0.056707) (xy -12.602931 0.056707)
					(xy -12.592475 0.183676) (xy -12.560092 0.310366) (xy -12.505878 0.419959) (xy -12.457607 0.483522)
					(xy -12.360124 0.567564) (xy -12.244753 0.620479) (xy -12.111493 0.642268) (xy -12.082694 0.64289)
					(xy -11.957062 0.633235) (xy -11.831417 0.599291) (xy -11.722388 0.540907) (xy -11.658933 0.488407)
					(xy -11.580306 0.391903) (xy -11.523027 0.2755) (xy -11.490036 0.155325) (xy -11.476361 0.054876)
					(xy -12.602931 0.056707) (xy -12.915918 0.056707) (xy -12.91663 0.049259) (xy -12.918615 -0.031219)
					(xy -12.918615 -0.177765) (xy -11.465981 -0.177765) (xy -11.482485 -0.304381) (xy -11.519522 -0.432055)
					(xy -11.575946 -0.541564) (xy -11.662596 -0.643047) (xy -11.772479 -0.720381) (xy -11.888561 -0.767875)
					(xy -12.021969 -0.795371) (xy -12.152914 -0.803026) (xy -12.276641 -0.797254) (xy -12.397627 -0.779938)
					(xy -12.505234 -0.754178) (xy -12.622487 -0.714822) (xy -12.739164 -0.663922) (xy -12.844732 -0.607632)
					(xy -12.844732 -0.920263) (xy -12.726947 -0.96848) (xy -12.606998 -1.008183) (xy -12.496075 -1.036889)
					(xy -12.372846 -1.059486) (xy -12.248319 -1.072702) (xy -12.133985 -1.076578)
				)
			)
			(polygon
				(pts
					(xy -13.825809 -1.068748) (xy -13.698822 -1.040622) (xy -13.574026 -0.984529) (xy -13.479153 -0.912936)
					(xy -13.39503 -0.811753) (xy -13.338439 -0.692988) (xy -13.311248 -0.572661) (xy -13.30513 -0.473299)
					(xy -13.315502 -0.34035) (xy -13.352759 -0.206942) (xy -13.417111 -0.093302) (xy -13.508559 0.000568)
					(xy -13.521895 0.010912) (xy -13.627224 0.074437) (xy -13.753005 0.12236) (xy -13.877097 0.151018)
					(xy -14.016215 0.168212) (xy -14.143626 0.173785) (xy -14.17036 0.173944) (xy -14.613661 0.173944)
					(xy -14.613661 0.203253) (xy -14.599648 0.325231) (xy -14.551863 0.437919) (xy -14.470168 0.528096)
					(xy -14.35788 0.593453) (xy -14.232133 0.629326) (xy -14.099689 0.642442) (xy -14.067778 0.64289)
					(xy -13.945332 0.637395) (xy -13.815396 0.619038) (xy -13.746599 0.603811) (xy -13.621608 0.56561)
					(xy -13.500648 0.51451) (xy -13.44618 0.486575) (xy -13.44618 0.760127) (xy -13.564174 0.809243)
					(xy -13.679716 0.849123) (xy -13.782624 0.877363) (xy -13.903782 0.901177) (xy -14.032517 0.914572)
					(xy -14.100751 0.916442) (xy -14.225919 0.911269) (xy -14.362504 0.891406) (xy -14.484235 0.856644)
					(xy -14.607478 0.797259) (xy -14.710503 0.717597) (xy -14.72357 0.704562) (xy -14.803988 0.601671)
					(xy -14.864654 0.477859) (xy -14.900932 0.355084) (xy -14.922699 0.216939) (xy -14.929754 0.090077)
					(xy -14.929955 0.063424) (xy -14.929955 -0.130137) (xy -14.613661 -0.130137) (xy -14.613661 -0.060528)
					(xy -14.299198 -0.060528) (xy -14.163894 -0.063576) (xy -14.02693 -0.074838) (xy -13.897949 -0.097869)
					(xy -13.778045 -0.1419) (xy -13.76858 -0.147234) (xy -13.672907 -0.237443) (xy -13.627884 -0.356668)
					(xy -13.620813 -0.442158) (xy -13.639054 -0.565815) (xy -13.699494 -0.67374) (xy -13.731333 -0.70594)
					(xy -13.843766 -0.772308) (xy -13.964323 -0.799613) (xy -14.032973 -0.803026) (xy -14.158033 -0.791539)
					(xy -14.283125 -0.751155) (xy -14.391698 -0.681694) (xy -14.454903 -0.619234) (xy -14.531646 -0.506239)
					(xy -14.578777 -0.38966) (xy -14.606064 -0.257893) (xy -14.613661 -0.130137) (xy -14.929955 -0.130137)
					(xy -14.929955 -1.0375) (xy -14.613661 -1.0375) (xy -14.613661 -0.724869) (xy -14.540865 -0.828266)
					(xy -14.448668 -0.920791) (xy -14.343772 -0.991093) (xy -14.224433 -1.039763) (xy -14.101167 -1.066477)
					(xy -13.978195 -1.076244) (xy -13.94932 -1.076578)
				)
			)
			(polygon
				(pts
					(xy -15.343336 0.877363) (xy -15.677949 0.877363) (xy -16.278786 -0.729754) (xy -16.880234 0.877363)
					(xy -17.214847 0.877363) (xy -16.49372 -1.0375) (xy -16.064463 -1.0375)
				)
			)
			(polygon
				(pts
					(xy -18.362203 -1.070123) (xy -18.232371 -1.050759) (xy -18.111902 -1.018484) (xy -17.979696 -0.962714)
					(xy -17.860971 -0.888353) (xy -17.772331 -0.812185) (xy -17.681026 -0.706491) (xy -17.608612 -0.587701)
					(xy -17.555089 -0.455818) (xy -17.524916 -0.335911) (xy -17.507862 -0.206912) (xy -17.503664 -0.097165)
					(xy -17.50988 0.043906) (xy -17.52853 0.175556) (xy -17.559612 0.297785) (xy -17.613321 0.432023)
					(xy -17.684934 0.552695) (xy -17.758287 0.64289) (xy -17.860247 0.735855) (xy -17.9747 0.809586)
					(xy -18.101646 0.864083) (xy -18.241087 0.899345) (xy -18.366831 0.914038) (xy -18.446441 0.916442)
					(xy -18.586154 0.907469) (xy -18.714488 0.88055) (xy -18.831446 0.835685) (xy -18.937026 0.772873)
					(xy -19.031229 0.692116) (xy -19.060102 0.661209) (xy -19.136881 0.559285) (xy -19.197774 0.444481)
					(xy -19.242783 0.316797) (xy -19.271906 0.176234) (xy -19.283329 0.056707) (xy -18.970342 0.056707)
					(xy -18.959886 0.183676) (xy -18.927503 0.310366) (xy -18.873289 0.419959) (xy -18.825018 0.483522)
					(xy -18.727535 0.567564) (xy -18.612164 0.620479) (xy -18.478904 0.642268) (xy -18.450105 0.64289)
					(xy -18.324473 0.633235) (xy -18.198828 0.599291) (xy -18.089799 0.540907) (xy -18.026344 0.488407)
					(xy -17.947717 0.391903) (xy -17.890438 0.2755) (xy -17.857447 0.155325) (xy -17.843772 0.054876)
					(xy -18.970342 0.056707) (xy -19.283329 0.056707) (xy -19.284041 0.049259) (xy -19.286026 -0.031219)
					(xy -19.286026 -0.177765) (xy -17.833392 -0.177765) (xy -17.849896 -0.304381) (xy -17.886933 -0.432055)
					(xy -17.943357 -0.541564) (xy -18.030007 -0.643047) (xy -18.13989 -0.720381) (xy -18.255972 -0.767875)
					(xy -18.38938 -0.795371) (xy -18.520325 -0.803026) (xy -18.644052 -0.797254) (xy -18.765038 -0.779938)
					(xy -18.872645 -0.754178) (xy -18.989899 -0.714822) (xy -19.106575 -0.663922) (xy -19.212143 -0.607632)
					(xy -19.212143 -0.920263) (xy -19.094358 -0.96848) (xy -18.974409 -1.008183) (xy -18.863486 -1.036889)
					(xy -18.740257 -1.059486) (xy -18.61573 -1.072702) (xy -18.501396 -1.076578)
				)
			)
			(polygon
				(pts
					(xy -20.31571 -1.06694) (xy -20.179986 -1.031331) (xy -20.056651 -0.969484) (xy -19.945704 -0.881398)
					(xy -19.874041 -0.802416) (xy -19.799752 -0.693301) (xy -19.740833 -0.572036) (xy -19.697284 -0.43862)
					(xy -19.672735 -0.31816) (xy -19.658859 -0.189261) (xy -19.655444 -0.080068) (xy -19.66078 0.055565)
					(xy -19.676791 0.182731) (xy -19.710093 0.324153) (xy -19.758765 0.453383) (xy -19.822807 0.570419)
					(xy -19.874041 0.641669) (xy -19.960795 0.735049) (xy -20.073511 0.819574) (xy -20.198617 0.877802)
					(xy -20.336111 0.909734) (xy -20.441906 0.916442) (xy -20.569131 0.907975) (xy -20.695305 0.879101)
					(xy -20.807049 0.829736) (xy -20.913695 0.751826) (xy -20.99848 0.65778) (xy -21.058619 0.564733)
					(xy -21.058619 1.619862) (xy -21.374303 1.619862) (xy -21.374303 -0.080068) (xy -21.058619 -0.080068)
					(xy -21.051694 0.060944) (xy -21.03092 0.18799) (xy -20.990219 0.316084) (xy -20.931429 0.425936)
					(xy -20.913905 0.450549) (xy -20.824443 0.543527) (xy -20.718172 0.606075) (xy -20.595093 0.638194)
					(xy -20.519453 0.64289) (xy -20.386789 0.627676) (xy -20.271126 0.582032) (xy -20.172466 0.50596)
					(xy -20.125 0.450549) (xy -20.062222 0.345257) (xy -20.017381 0.221724) (xy -19.992858 0.098668)
					(xy -19.982068 -0.038353) (xy -19.981508 -0.080068) (xy -19.988374 -0.22108) (xy -20.008973 -0.348126)
					(xy -20.04933 -0.47622) (xy -20.107624 -0.586072) (xy -20.125 -0.610685) (xy -20.214216 -0.703663)
					(xy -20.320433 -0.766211) (xy -20.443652 -0.798331) (xy -20.519453 -0.803026) (xy -20.65187 -0.787812)
					(xy -20.767478 -0.742168) (xy -20.866279 -0.666096) (xy -20.913905 -0.610685) (xy -20.977217 -0.505394)
					(xy -21.02244 -0.38186) (xy -21.047172 -0.258804) (xy -21.058053 -0.121782) (xy -21.058619 -0.080068)
					(xy -21.374303 -0.080068) (xy -21.374303 -1.0375) (xy -21.058619 -1.0375) (xy -21.058619 -0.724869)
					(xy -20.991285 -0.82736) (xy -20.905372 -0.919439) (xy -20.807049 -0.989872) (xy -20.695305 -1.039237)
					(xy -20.569131 -1.068111) (xy -20.441906 -1.076578)
				)
			)
			(polygon
				(pts
					(xy -23.474181 -1.623682) (xy -23.474181 -1.858155) (xy -21.647244 -1.858155) (xy -21.647244 -1.623682)
				)
			)
			(polygon
				(pts
					(xy -24.420422 -1.071778) (xy -24.279716 -1.053345) (xy -24.152833 -1.021088) (xy -24.022277 -0.965982)
					(xy -23.910537 -0.892059) (xy -23.89611 -0.879963) (xy -23.807603 -0.785495) (xy -23.740835 -0.674665)
					(xy -23.695805 -0.547473) (xy -23.67451 -0.425428) (xy -23.668964 -0.314541) (xy -23.680073 -0.184077)
					(xy -23.7134 -0.065399) (xy -23.776488 0.052643) (xy -23.809404 0.095786) (xy -23.897439 0.181792)
					(xy -24.002861 0.250217) (xy -24.125672 0.301061) (xy -24.201414 0.321711) (xy -24.083529 0.360791)
					(xy -23.970901 0.422567) (xy -23.877593 0.503664) (xy -23.853368 0.53176) (xy -23.78768 0.634931)
					(xy -23.74632 0.75134) (xy -23.72929 0.880987) (xy -23.728804 0.908504) (xy -23.739264 1.038255)
					(xy -23.776835 1.171301) (xy -23.841731 1.288089) (xy -23.933952 1.38862) (xy -23.947401 1.400043)
					(xy -24.051077 1.470468) (xy -24.170296 1.523596) (xy -24.305061 1.559426) (xy -24.432945 1.57637)
					(xy -24.548238 1.580783) (xy -24.686011 1.574429) (xy -24.812192 1.555366) (xy -24.944753 1.517065)
					(xy -25.061535 1.461466) (xy -25.149076 1.400043) (xy -25.244712 1.301545) (xy -25.313024 1.186789)
					(xy -25.354011 1.055775) (xy -25.36746 0.927802) (xy -25.367673 0.908504) (xy -25.36481 0.877363)
					(xy -25.023901 0.877363) (xy -25.008966 1.0062) (xy -24.958605 1.122721) (xy -24.897506 1.193658)
					(xy -24.789428 1.262866) (xy -24.666219 1.298247) (xy -24.548238 1.307231) (xy -24.417578 1.29614)
					(xy -24.296442 1.258319) (xy -24.198971 1.193658) (xy -24.123065 1.095942) (xy -24.082193 0.973152)
					(xy -24.074407 0.877363) (xy -24.089126 0.748527) (xy -24.138757 0.632006) (xy -24.198971 0.561069)
					(xy -24.306476 0.49186) (xy -24.429764 0.45648) (xy -24.548238 0.447496) (xy -24.678374 0.458587)
					(xy -24.799484 0.496408) (xy -24.897506 0.561069) (xy -24.974528 0.658785) (xy -25.016002 0.781574)
					(xy -25.023901 0.877363) (xy -25.36481 0.877363) (xy -25.355509 0.77621) (xy -25.319015 0.657154)
					(xy -25.250773 0.541481) (xy -25.243109 0.53176) (xy -25.155776 0.444868) (xy -25.04948 0.377295)
					(xy -24.924222 0.329043) (xy -24.896895 0.321711) (xy -25.015429 0.286067) (xy -25.132176 0.229363)
					(xy -25.231341 0.155077) (xy -25.287684 0.095786) (xy -25.361422 -0.016436) (xy -25.407849 -0.143208)
					(xy -25.426284 -0.269743) (xy -25.427513 -0.314541) (xy -25.080688 -0.314541) (xy -25.066854 -0.181412)
					(xy -25.01968 -0.057147) (xy -24.939027 0.043885) (xy -24.828936 0.117932) (xy -24.706815 0.158576)
					(xy -24.57896 0.173436) (xy -24.548238 0.173944) (xy -24.41749 0.163656) (xy -24.291815 0.128093)
					(xy -24.177402 0.059634) (xy -24.159282 0.043885) (xy -24.078629 -0.057147) (xy -24.031455 -0.181412)
					(xy -24.017621 -0.314541) (xy -24.031455 -0.44767) (xy -24.078629 -0.571935) (xy -24.159282 -0.672967)
					(xy -24.269156 -0.747014) (xy -24.390705 -0.787658) (xy -24.517739 -0.802518) (xy -24.548238 -0.803026)
					(xy -24.679035 -0.79269) (xy -24.804877 -0.75696) (xy -24.919612 -0.68818) (xy -24.937806 -0.672356)
					(xy -25.019154 -0.570845) (xy -25.066735 -0.446823) (xy -25.080688 -0.314541) (xy -25.427513 -0.314541)
					(xy -25.419506 -0.446604) (xy -25.395484 -0.566645) (xy -25.34722 -0.6915) (xy -25.277158 -0.799992)
					(xy -25.199756 -0.879963) (xy -25.090942 -0.956574) (xy -24.963253 -1.014368) (xy -24.838782 -1.048929)
					(xy -24.700444 -1.069666) (xy -24.574569 -1.076386) (xy -24.548238 -1.076578)
				)
			)
			(polygon
				(pts
					(xy -27.484037 0.495123) (xy -27.554341 0.607727) (xy -27.631986 0.702362) (xy -27.726868 0.78644)
					(xy -27.767359 0.81386) (xy -27.88763 0.872264) (xy -28.008988 0.904321) (xy -28.141795 0.916342)
					(xy -28.155705 0.916442) (xy -28.280564 0.906362) (xy -28.40716 0.870155) (xy -28.516583 0.807615)
					(xy -28.608832 0.718743) (xy -28.619156 0.705783) (xy -28.69075 0.589615) (xy -28.736614 0.469685)
					(xy -28.766818 0.332692) (xy -28.780242 0.201688) (xy -28.782799 0.107388) (xy -28.782799 -1.0375)
					(xy -28.464672 -1.0375) (xy -28.464672 0.097008) (xy -28.458566 0.226685) (xy -28.4371 0.351224)
					(xy -28.389873 0.472741) (xy -28.366975 0.508557) (xy -28.270566 0.595532) (xy -28.15134 0.636462)
					(xy -28.068388 0.64289) (xy -27.938429 0.629946) (xy -27.813064 0.5852) (xy -27.707734 0.508492)
					(xy -27.680042 0.479248) (xy -27.611269 0.378172) (xy -27.565003 0.258356) (xy -27.542773 0.13612)
					(xy -27.537771 0.034726) (xy -27.537771 -1.0375) (xy -27.219645 -1.0375) (xy -27.219645 0.097008)
					(xy -27.2135 0.22741) (xy -27.1919 0.352309) (xy -27.144378 0.473609) (xy -27.121337 0.509167)
					(xy -27.024423 0.595748) (xy -26.903838 0.636491) (xy -26.819697 0.64289) (xy -26.691214 0.629898)
					(xy -26.566922 0.584985) (xy -26.462069 0.507991) (xy -26.434404 0.478637) (xy -26.36563 0.377363)
					(xy -26.319364 0.257638) (xy -26.297134 0.135726) (xy -26.292132 0.034726) (xy -26.292132 -1.0375)
					(xy -25.974617 -1.0375) (xy -25.974617 0.877363) (xy -26.292132 0.877363) (xy -26.292132 0.564733)
					(xy -26.363855 0.668071) (xy -26.452392 0.760392) (xy -26.55103 0.830347) (xy -26.672588 0.882811)
					(xy -26.798047 0.909632) (xy -26.910677 0.916442) (xy -27.035434 0.905888) (xy -27.158479 0.869897)
					(xy -27.266661 0.808365) (xy -27.35874 0.722589) (xy -27.432637 0.61387)
				)
			)
			(polygon
				(pts
					(xy -30.893668 0.495123) (xy -30.963971 0.607727) (xy -31.041616 0.702362) (xy -31.136498 0.78644)
					(xy -31.176989 0.81386) (xy -31.29726 0.872264) (xy -31.418618 0.904321) (xy -31.551425 0.916342)
					(xy -31.565335 0.916442) (xy -31.690194 0.906362) (xy -31.81679 0.870155) (xy -31.926213 0.807615)
					(xy -32.018463 0.718743) (xy -32.028786 0.705783) (xy -32.10038 0.589615) (xy -32.146245 0.469685)
					(xy -32.176448 0.332692) (xy -32.189872 0.201688) (xy -32.192429 0.107388) (xy -32.192429 -1.0375)
					(xy -31.874303 -1.0375) (xy -31.874303 0.097008) (xy -31.868197 0.226685) (xy -31.84673 0.351224)
					(xy -31.799503 0.472741) (xy -31.776605 0.508557) (xy -31.680196 0.595532) (xy -31.56097 0.636462)
					(xy -31.478019 0.64289) (xy -31.348059 0.629946) (xy -31.222694 0.5852) (xy -31.117364 0.508492)
					(xy -31.089672 0.479248) (xy -31.020899 0.378172) (xy -30.974633 0.258356) (xy -30.952403 0.13612)
					(xy -30.947401 0.034726) (xy -30.947401 -1.0375) (xy -30.629275 -1.0375) (xy -30.629275 0.097008)
					(xy -30.62313 0.22741) (xy -30.60153 0.352309) (xy -30.554008 0.473609) (xy -30.530967 0.509167)
					(xy -30.434053 0.595748) (xy -30.313468 0.636491) (xy -30.229327 0.64289) (xy -30.100844 0.629898)
					(xy -29.976552 0.584985) (xy -29.871699 0.507991) (xy -29.844034 0.478637) (xy -29.77526 0.377363)
					(xy -29.728994 0.257638) (xy -29.706764 0.135726) (xy -29.701762 0.034726) (xy -29.701762 -1.0375)
					(xy -29.384247 -1.0375) (xy -29.384247 0.877363) (xy -29.701762 0.877363) (xy -29.701762 0.564733)
					(xy -29.773485 0.668071) (xy -29.862022 0.760392) (xy -29.96066 0.830347) (xy -30.082218 0.882811)
					(xy -30.207677 0.909632) (xy -30.320308 0.916442) (xy -30.445065 0.905888) (xy -30.56811 0.869897)
					(xy -30.676291 0.808365) (xy -30.76837 0.722589) (xy -30.842267 0.61387)
				)
			)
		)
	)
	(property "Footprint" "MutualCap_Sensor_Interleaved_8mm"
		(at 0 0 0)
		(unlocked yes)
		(layer "F.Fab")
		(hide yes)
		(uuid "6387720d-f59e-4f4a-b6a7-4abf412c394e")
		(effects
			(font
				(size 1 1)
				(thickness 0.15)
			)
		)
	)
	(property "Datasheet" ""
		(at 0 0 0)
		(unlocked yes)
		(layer "F.Fab")
		(hide yes)
		(uuid "5db82d0f-a228-47bc-a23b-e3fa06fe1361")
		(effects
			(font
				(size 1 1)
				(thickness 0.15)
			)
		)
	)
	(property "Description" ""
		(at 0 0 0)
		(unlocked yes)
		(layer "F.Fab")
		(hide yes)
		(uuid "0c284681-c47b-4883-9a15-9b2d6b74410a")
		(effects
			(font
				(size 1 1)
				(thickness 0.15)
			)
		)
	)
	(fp_text user "${REFERENCE}"
		(at 0 2.5 0)
		(unlocked yes)
		(layer "F.Fab")
		(uuid "b537e881-0fcd-48da-bea0-c19c64bf9735")
		(effects
			(font
				(size 1 1)
				(thickness 0.15)
			)
		)
	)
	(pad "1" smd custom
		(at 0 0)
		(size 0.25 7.5)
		(drill
			(offset 0 0.25)
		)
		(layers "F.Cu")
		(options
			(clearance outline)
			(anchor rect)
		)
		(primitives
			(gr_line
				(start -1.5 -3.25)
				(end 1.5 -3.25)
				(width 0.25)
			)
			(gr_line
				(start -2.75 -2.25)
				(end 2.75 -2.25)
				(width 0.25)
			)
			(gr_line
				(start -3.25 -1.25)
				(end 3.25 -1.25)
				(width 0.25)
			)
			(gr_line
				(start -3.5 -0.25)
				(end 3.5 -0.25)
				(width 0.25)
			)
			(gr_line
				(start -3.25 0.75)
				(end 3.25 0.75)
				(width 0.25)
			)
			(gr_line
				(start -2.5 1.75)
				(end 2.5 1.75)
				(width 0.25)
			)
			(gr_line
				(start -1.5 2.75)
				(end 1.5 2.75)
				(width 0.25)
			)
		)
		(uuid "bd764035-f20c-4f59-aa8f-cc235243e71a")
	)
	(pad "2" smd custom
		(at 0.024999 -3.895 90)
		(size 0.19 0.289998)
		(layers "F.Cu")
		(options
			(clearance outline)
			(anchor rect)
		)
		(primitives
			(gr_arc
				(start -7.755 -0.574999)
				(mid 0.003977 -0.01595)
				(end -7.757511 0.507082)
				(width 0.2)
			)
			(gr_line
				(start -3.395 -3.854999)
				(end -3.395 -0.524999)
				(width 0.25)
			)
			(gr_line
				(start -6.395 0.475001)
				(end -6.395 2.920001)
				(width 0.25)
			)
			(gr_line
				(start -5.395 0.475001)
				(end -5.395 3.537501)
				(width 0.25)
			)
			(gr_line
				(start -4.395 0.475001)
				(end -4.395 3.800001)
				(width 0.25)
			)
			(gr_line
				(start -5.395 -3.569999)
				(end -5.395 -0.524999)
				(width 0.25)
			)
			(gr_line
				(start -3.395 0.475001)
				(end -3.395 3.795001)
				(width 0.25)
			)
			(gr_line
				(start -4.395 -3.854999)
				(end -4.395 -0.524999)
				(width 0.25)
			)
			(gr_line
				(start -6.395 -2.974999)
				(end -6.395 -0.524999)
				(width 0.25)
			)
			(gr_line
				(start -1.395 -2.994999)
				(end -1.395 -0.524999)
				(width 0.25)
			)
			(gr_line
				(start -1.395 0.475001)
				(end -1.395 2.915001)
				(width 0.25)
			)
			(gr_line
				(start -2.395 0.475001)
				(end -2.395 3.535001)
				(width 0.25)
			)
			(gr_line
				(start -2.395 -3.594999)
				(end -2.395 -0.524999)
				(width 0.25)
			)
		)
		(uuid "eaf487b3-9066-4001-b0f1-bf847dce723c")
	)
	(zone
		(net 0)
		(net_name "")
		(layer "B.Cu")
		(uuid "22d28547-84bd-4812-bb44-b834ac3c7927")
		(name "Back Keepout")
		(hatch edge 0.5)
		(connect_pads
			(clearance 0)
		)
		(min_thickness 0.25)
		(filled_areas_thickness no)
		(keepout
			(tracks not_allowed)
			(vias not_allowed)
			(pads not_allowed)
			(copperpour not_allowed)
			(footprints allowed)
		)
		(fill
			(thermal_gap 0.5)
			(thermal_bridge_width 0.5)
		)
		(polygon
			(pts
				(xy 0 -4) (xy -0.57 -3.95) (xy -1.26 -3.81) (xy -2.18 -3.37) (xy -2.67 -2.99) (xy -3.14 -2.48) (xy -3.53 -1.89)
				(xy -3.82 -1.18) (xy -3.96 -0.54) (xy -3.99 -0.1) (xy -3.94 0.4) (xy -3.9 0.87) (xy -3.66 1.58)
				(xy -3.42 2.03) (xy -3.14 2.47) (xy -2.84 2.81) (xy -2.45 3.16) (xy -2.09 3.41) (xy -1.73 3.6) (xy -1.39 3.75)
				(xy -1.05 3.85) (xy -0.76 3.93) (xy -0.49 3.97) (xy -0.16 4) (xy 0.12 4) (xy 0.34 3.99) (xy 0.6 3.96)
				(xy 1 3.87) (xy 1.4 3.75) (xy 2.03 3.45) (xy 2.35 3.24) (xy 2.69 2.96) (xy 2.79 2.86) (xy 3.05 2.59)
				(xy 3.32 2.23) (xy 3.55 1.83) (xy 3.63 1.67) (xy 3.75 1.39) (xy 3.86 1.02) (xy 3.95 0.68) (xy 3.99 0.3)
				(xy 3.99 -0.14) (xy 3.98 -0.39) (xy 3.96 -0.58) (xy 3.9 -0.86) (xy 3.86 -1.03) (xy 3.78 -1.28) (xy 3.7 -1.51)
				(xy 3.56 -1.82) (xy 3.42 -2.09) (xy 3.25 -2.33) (xy 3.08 -2.55) (xy 2.87 -2.77) (xy 2.64 -3.01)
				(xy 2.45 -3.16) (xy 2.15 -3.38) (xy 1.73 -3.6) (xy 1.3 -3.79) (xy 0.88 -3.9) (xy 0.57 -3.96) (xy 0.28 -3.99)
			)
		)
	)
)
